Kannada AoA Study Milestone Report
…
By semantic category

These are the semantic categories of nouns in the word list:

Nouns in the AoA list include various semantic categories, including thing, animal, food, nature, and person.

## # A tibble: 41 x 2
##    Type       n
##    <chr>  <int>
##  1 thing     84
##  2 animal    44
##  3 food      31
##  4 nature    29
##  5 person    25
##  6 time      21
##  7 body      20
##  8 family    19
##  9 place     17
## 10 act       12
## # ... with 31 more rows
…
